{
    "meta": {
        "count": 3,
        "pageCount": 2,
        "totalCount": 6,
        "next": "/api/v2/delegates?page=2",
        "previous": null,
        "self": "/api/v2/delegates?page=1&limit=100",
        "first": "/api/v2/delegates?page=1&limit=100",
        "last": "/api/v2/delegates?page=2&limit=100"
    },
    "data": [
        {
            "username": "arkx",
            "address": "DNjuJEDQkhrJ7cA9FZ2iVXt5anYiM8Jtc9",
            "publicKey": "03bbfb43ecb5a54a1e227bb37b5812b5321213838d376e2b455b6af78442621dec",
            "votes": 43424464264923,
            "rank": 1,
            "blocks": {
                "produced": 15605,
                "missed": 709,
                "last": {
                    "id": "9508080167740922063",
                    "timestamp": {
                        "epoch": 52479984,
                        "unix": 1542581184,
                        "human": "2018-11-18T22:46:24Z"
                    }
                }
            },
            "production": {
                "approval": 0.34,
                "productivity": 95.65
            },
            "forged": {
                "fees": 74694705072,
                "rewards": 3078200000000,
                "total": 3152894705072
            }
        },
        {
            "username": "obiwan",
            "address": "D71HuRcEGH8q15hZnaqZ1oSfgZjqYscgav",
            "publicKey": "03a2f2ce2aebd426d353bf3abf2c00a85e3122070bbeaa04b73eba2a6119dbc620",
            "votes": 7827580000000,
            "rank": 2,
            "blocks": {
                "produced": 15104,
                "missed": 493,
                "last": {
                    "id": "6408769526029163610",
                    "timestamp": {
                        "epoch": 52479946,
                        "unix": 1542581146,
                        "human": "2018-11-18T22:45:46Z"
                    }
                }
            },
            "production": {
                "approval": 0.06,
                "productivity": 96.84
            },
            "forged": {
                "fees": 50980000000,
                "rewards": 2986600000000,
                "total": 3037580000000
            }
        },
        {
            "username": "yo",
            "address": "DTFWtjocUWuiwqxcPh2Qi6SWU9CJKvPpsD",
            "publicKey": "02e345079aca0567db96ec0ba3acf859b7cfd15134a855671f9c0fe8b1173767bd",
            "votes": 6343253260000,
            "rank": 3,
            "blocks": {
                "produced": 4165,
                "missed": 785
            },
            "production": {
                "approval": 0.05,
                "productivity": 84.14
            },
            "forged": {
                "fees": 3550000000,
                "rewards": 833000000000,
                "total": 836550000000
            }
        }
    ]
}
