{
    "meta": {
        "count": 3,
        "pageCount": 2,
        "totalCount": 6,
        "next": "/api/v2/delegates/03bbfb43ecb5a54a1e227bb37b5812b5321213838d376e2b455b6af78442621dec/voters?page=2&limit=100",
        "previous": null,
        "self": "/api/v2/delegates/03bbfb43ecb5a54a1e227bb37b5812b5321213838d376e2b455b6af78442621dec/voters?page=1&limit=100",
        "first": "/api/v2/delegates/03bbfb43ecb5a54a1e227bb37b5812b5321213838d376e2b455b6af78442621dec/voters?page=1&limit=100",
        "last": "/api/v2/delegates/03bbfb43ecb5a54a1e227bb37b5812b5321213838d376e2b455b6af78442621dec/voters?page=2&limit=100"
    },
    "data": [
        {
            "address": "D598HVxTLLyjnpvpj1voo5CePGYxpw9kvy",
            "publicKey": "033c0b8ca9e01cacd539cb512ac8d576a37c287fea8fd769fc3cad46889e5a708c",
            "username": null,
            "secondPublicKey": null,
            "balance": 100000000,
            "isDelegate": false
        },
        {
            "address": "D59atbRCJ5UijDPMHj9opgU3gxbffzFRLe",
            "publicKey": "026554b83729a2f2928f47fb7f0ce55cf462c7828792f9216bce60851eda938d98",
            "username": null,
            "secondPublicKey": null,
            "balance": 100000000,
            "isDelegate": false
        },
        {
            "address": "D59r2xBatFUjRY9BMwjuUdXNBSCraVGKWh",
            "publicKey": "03e6c5aa5835eec16fc48a913f2c9622c69b2ed7eb828b5b892509934031e985e5",
            "username": null,
            "secondPublicKey": null,
            "balance": 100000000,
            "isDelegate": false
        }
    ]
}
