{
    "meta": {
        "count": 3,
        "pageCount": 2,
        "totalCount": 6,
        "next": null,
        "previous": "/api/v2/delegates?page=1",
        "self": "/api/v2/delegates?page=2&limit=100",
        "first": "/api/v2/delegates?page=1&limit=100",
        "last": "/api/v2/delegates?page=2&limit=100"
    },
    "data": [
        {
            "username": "cam",
            "address": "DACFobAjNEKsc1CtPSMyp5uA4wp6uC3fgC",
            "publicKey": "032cfbb18f4e49952c6d6475e8adc6d0cba00b81ef6606cc4927b78c6c50558beb",
            "votes": 6070791889600,
            "rank": 4,
            "blocks": {
                "produced": 1551,
                "last": {
                    "id": "3658545612136752676",
                    "timestamp": {
                        "epoch": 52479330,
                        "unix": 1542580530,
                        "human": "2018-11-18T22:35:30Z"
                    }
                }
            },
            "production": {
                "approval": 0.05
            },
            "forged": {
                "fees": 5060000000,
                "rewards": 310200000000,
                "total": 315260000000
            }
        },
        {
            "username": "arklabs",
            "address": "D9z1ZUcCUHHeiFLEtYhwk6z8kmbCCHTRFd",
            "publicKey": "0394685435d7331d178effe91d6b101ce7c4a6e03d2a96cfd5be1fffb0ae156e58",
            "votes": 4500000000000,
            "rank": 5,
            "blocks": {
                "produced": 14572
            },
            "production": {
                "approval": 0.04
            },
            "forged": {
                "fees": 29670020960,
                "rewards": 2884000000000,
                "total": 2913670020960
            }
        },
        {
            "username": "jeremig",
            "address": "D7h9uZHJAA37j9UnSs9zbhkEv6QtKGrSGL",
            "publicKey": "02c6a267650795a4f4bd95e32a65aa5aa8e384d218e8be7b1f9c3a5f21661e85db",
            "votes": 4013860773791,
            "rank": 6,
            "blocks": {
                "produced": 2650
            },
            "production": {
                "approval": 0.03
            },
            "forged": {
                "fees": 3000000000,
                "rewards": 530000000000,
                "total": 533000000000
            }
        }
    ]
}
