{
    "meta": {
        "count": 3,
        "pageCount": 2,
        "totalCount": 6,
        "next": null,
        "previous": "/api/v2/delegates/03bbfb43ecb5a54a1e227bb37b5812b5321213838d376e2b455b6af78442621dec/voters?page=1&limit=100",
        "self": "/api/v2/delegates/03bbfb43ecb5a54a1e227bb37b5812b5321213838d376e2b455b6af78442621dec/voters?page=2&limit=100",
        "first": "/api/v2/delegates/03bbfb43ecb5a54a1e227bb37b5812b5321213838d376e2b455b6af78442621dec/voters?page=1&limit=100",
        "last": "/api/v2/delegates/03bbfb43ecb5a54a1e227bb37b5812b5321213838d376e2b455b6af78442621dec/voters?page=2&limit=100"
    },
    "data": [
        {
            "address": "D5A1b37Yr291pxwomH2gHZeekoks2tLwhk",
            "publicKey": "023f3312ca84373adf6a219eb4bc70545263338810afc33331a86634d3d80ae72d",
            "username": null,
            "secondPublicKey": null,
            "balance": 100000000,
            "isDelegate": false
        },
        {
            "address": "D5a3upUoaEfLUkwCVkspJNQJq4UCR1ytth",
            "publicKey": "03bf5acdc2a8dfd0f46a6353dc39fcc1ee896232f3a470e196dfbc4c9f7cbf6318",
            "username": null,
            "secondPublicKey": null,
            "balance": 100000000,
            "isDelegate": false
        },
        {
            "address": "D5a9L47PQEKk9JCnYzhSoXFf9wAn1k8Y3E",
            "publicKey": "02cf021ef0687ca93a102244b88b733cec0851875993b040aaaa72a95eb3927f6d",
            "username": null,
            "secondPublicKey": null,
            "balance": 100000000,
            "isDelegate": false
        }
    ]
}
